<?xml version="1.0" encoding="UTF-8" standalone="no"?>
<!-- Created with Inkscape (http://www.inkscape.org/) -->

<svg
   width="200"
   height="200"
   viewBox="0 0 52.916665 52.916668"
   version="1.1"
   id="svg5"
   sodipodi:docname="add.svg"
   inkscape:version="1.1 (c4e8f9ed74, 2021-05-24)"
   xmlns:inkscape="http://www.inkscape.org/namespaces/inkscape"
   xmlns:sodipodi="http://sodipodi.sourceforge.net/DTD/sodipodi-0.dtd"
   xmlns="http://www.w3.org/2000/svg"
   xmlns:svg="http://www.w3.org/2000/svg">
  <sodipodi:namedview
     id="namedview7"
     pagecolor="#ffffff"
     bordercolor="#666666"
     borderopacity="1.0"
     inkscape:pageshadow="2"
     inkscape:pageopacity="0.0"
     inkscape:pagecheckerboard="0"
     inkscape:document-units="mm"
     showgrid="false"
     units="px"
     width="200px"
     inkscape:zoom="0.65655864"
     inkscape:cx="-74.631567"
     inkscape:cy="561.25984"
     inkscape:window-width="1920"
     inkscape:window-height="1080"
     inkscape:window-x="0"
     inkscape:window-y="0"
     inkscape:window-maximized="1"
     inkscape:current-layer="layer1" />
  <defs
     id="defs2" />
  <g
     inkscape:label="Layer 1"
     inkscape:groupmode="layer"
     id="layer1">
    <path
       style="fill:none;stroke-width:1.52309"
       d="M 82.231658,196.54636 C 62.170887,192.25411 45.609245,183.30728 31.288323,169.02604 12.654758,150.44411 3.9706455,130.55593 2.6839133,103.5168 2.0472185,90.137418 2.4702846,85.466137 5.229636,75.408215 14.396734,41.993848 39.199508,15.924043 71.58538,5.6627336 87.045472,0.76427726 114.40305,0.85396422 129.46292,5.8524748 163.60781,17.185478 189.15246,45.510299 196.4989,80.184373 c 10.08562,47.602537 -18.54913,96.610517 -65.85035,112.701977 -12.88589,4.38368 -36.641677,6.17945 -48.416892,3.66001 z"
       id="path249"
       transform="scale(0.26458333)" />
    <path
       style="fill:none;stroke-width:1.52309"
       d="M 82.231658,196.54636 C 62.170887,192.25411 45.609245,183.30728 31.288323,169.02604 12.654758,150.44411 3.9706455,130.55593 2.6839133,103.5168 2.0472185,90.137418 2.4702846,85.466137 5.229636,75.408215 14.396734,41.993848 39.199508,15.924043 71.58538,5.6627336 87.045472,0.76427726 114.40305,0.85396422 129.46292,5.8524748 163.60781,17.185478 189.15246,45.510299 196.4989,80.184373 c 10.08562,47.602537 -18.54913,96.610517 -65.85035,112.701977 -12.88589,4.38368 -36.641677,6.17945 -48.416892,3.66001 z"
       id="path288"
       transform="scale(0.26458333)" />
    <path
       style="fill:none;stroke-width:1.52309"
       d="M 82.231658,196.54636 C 62.170887,192.25411 45.609245,183.30728 31.288323,169.02604 12.654758,150.44411 3.9706455,130.55593 2.6839133,103.5168 2.0472185,90.137418 2.4702846,85.466137 5.229636,75.408215 14.396734,41.993848 39.199508,15.924043 71.58538,5.6627336 87.045472,0.76427726 114.40305,0.85396422 129.46292,5.8524748 163.60781,17.185478 189.15246,45.510299 196.4989,80.184373 c 10.08562,47.602537 -18.54913,96.610517 -65.85035,112.701977 -12.88589,4.38368 -36.641677,6.17945 -48.416892,3.66001 z"
       id="path327"
       transform="scale(0.26458333)" />
    <path
       style="fill:none;stroke-width:1.52309"
       d="M 82.231658,196.54636 C 62.170887,192.25411 45.609245,183.30728 31.288323,169.02604 12.654758,150.44411 3.9706455,130.55593 2.6839133,103.5168 2.0472185,90.137418 2.4702846,85.466137 5.229636,75.408215 14.396734,41.993848 39.199508,15.924043 71.58538,5.6627336 87.045472,0.76427726 114.40305,0.85396422 129.46292,5.8524748 163.60781,17.185478 189.15246,45.510299 196.4989,80.184373 c 10.08562,47.602537 -18.54913,96.610517 -65.85035,112.701977 -12.88589,4.38368 -36.641677,6.17945 -48.416892,3.66001 z"
       id="path551"
       transform="scale(0.26458333)" />
    <circle
       style="fill:#800006;stroke-width:0.264583;fill-opacity:1"
       id="path922"
       cx="26.5"
       cy="26.5"
       r="26.396057" />
    <rect
       style="fill:#ffffff;fill-opacity:1;stroke-width:0.264583"
       id="rect7818"
       width="6"
       height="45"
       x="23.5"
       y="4" />
    <rect
       style="fill:#fffff0;fill-opacity:1;stroke-width:0.264583"
       id="rect7820"
       width="45"
       height="6"
       x="4"
       y="23.5" />
  </g>
</svg>
