<?xml version="1.0" encoding="UTF-8" standalone="no"?>
<svg
   version="1.1"
   viewBox="-5 -5 1451.1126 1519.1612"
   id="svg3"
   sodipodi:docname="like.svg"
   inkscape:version="1.1 (c4e8f9ed74, 2021-05-24)"
   width="290.22253"
   height="303.83224"
   xmlns:inkscape="http://www.inkscape.org/namespaces/inkscape"
   xmlns:sodipodi="http://sodipodi.sourceforge.net/DTD/sodipodi-0.dtd"
   xmlns="http://www.w3.org/2000/svg"
   xmlns:svg="http://www.w3.org/2000/svg">
  <defs
     id="defs7" />
  <sodipodi:namedview
     id="namedview5"
     pagecolor="#ffffff"
     bordercolor="#666666"
     borderopacity="1.0"
     inkscape:pageshadow="2"
     inkscape:pageopacity="0"
     inkscape:pagecheckerboard="0"
     showgrid="false"
     inkscape:zoom="0.48169935"
     inkscape:cx="726.5943"
     inkscape:cy="760.84803"
     inkscape:window-width="1920"
     inkscape:window-height="1080"
     inkscape:window-x="1920"
     inkscape:window-y="0"
     inkscape:window-maximized="1"
     inkscape:current-layer="svg3"
     fit-margin-top="0"
     fit-margin-left="0"
     fit-margin-right="0"
     fit-margin-bottom="0"
     scale-x="5" />
  <rect
     style="fill:#800000;stroke-width:5"
     id="rect30"
     width="1464.2451"
     height="1532.5607"
     x="-5.3142357"
     y="-11.078815" />
  <path
     id="ThumbsUp"
     fill="#000000"
     stroke="none"
     stroke-width="0"
     d="m -5,843.97619 c 0,-32.79 26.581369,-59.371 59.370669,-59.371 H 240.09466 c 32.789,0 59.371,26.581 59.371,59.371 v 579.10501 c 0,32.79 -26.582,59.37 -59.371,59.37 H 54.370669 C 21.581369,1482.4512 -5,1455.8712 -5,1423.0812 Z M 862.20565,-4.5068148 c 89.45,-7.3173302 168.44705,67.8532998 178.56705,154.7600048 18.25,93.412 -12.1,187.411 -58.73505,267.74 -24.835,55.204 -62.136,113.96 -48.687,176.84 46.812,12.947 105.14205,-1.596 156.29205,3.269 83.64,1.948 169.32,-3.629 251.13,16.287 54.96,25.792 90.98,84.905 105.34,142.28 -3.5,52.644 -84.51,95.832 -30.02,149.36 47.38,46.553 21.64,103.30201 -22.49,140.41201 -40.67,54.73 50.39,112.71 8.47,168.84 -30.43,42.42 -90.69,73.95 -75.17,135.35 7.1,61.69 -53.36,101.55 -97.19,133.04 -77.18,38.53 -167.56,28.5 -251.25505,30.49 -140.11,-4.42 -281.41999,-6.19 -418.51999,-38.51 -65.784,-12.46 -131.88,-23.51 -197.46,-36.9 l -1.935,-622.47701 c 55.352,7.866 99.96,-31.753 129.24,-74.413 64.804,-87.312 99.96,-191.1 146.391,-288.1 43.382,-65.348 127.93999,-96.117 153.26899,-175.12 36.043,-83.668 39.88,-176.1 49.535,-265.380005 -4.062,-11.5359998 31.497,-18.0479998 23.221,-17.7692998 z" />
  <path
     style="fill:#ffffff;stroke-width:2.07598"
     d="m 146.35685,300.61 c -8.45773,-0.90928 -63.671293,-10.75717 -69.026457,-12.31156 -3.353799,-0.97345 -3.632972,-5.74979 -3.632972,-62.15612 V 165.0407 H 78.7281 c 11.335308,0 25.19079,-17.4449 40.52705,-51.02603 8.21646,-17.991223 12.48993,-24.421419 24.4369,-36.769731 16.58178,-17.138817 19.9131,-24.826282 24.0881,-55.586635 l 2.65784,-19.5823203 8.40829,0.1561989 c 17.44246,0.3240245 29.79008,16.7716884 29.79008,39.6819244 0,13.942964 -2.14647,21.181635 -13.42319,45.267717 -4.30027,9.185003 -7.82301,20.077286 -8.02122,24.801496 l -0.35342,8.42373 38.4057,1.14533 c 46.90464,1.39878 52.99798,3.71668 61.16701,23.26795 3.06685,7.34001 2.96806,8.12194 -2.4125,19.09268 l -5.61032,11.43921 4.56766,6.17809 c 6.03976,8.16923 5.81689,16.99895 -0.6223,24.65147 -6.00377,7.13509 -6.3612,11.06881 -2.10247,23.13937 3.34331,9.47593 2.44447,12.91179 -5.18372,19.81523 -6.62938,5.99951 -10.35967,14.27681 -10.35967,22.98755 0,6.22376 -1.63885,9.28104 -8.82978,16.47198 -5.24758,5.24756 -12.19587,9.76424 -17.12686,11.13316 -7.6976,2.13698 -74.74416,2.77636 -92.37443,0.88093 z"
     id="path858"
     transform="matrix(4.9999998,0,0,4.9999998,-5,-5)" />
  <path
     style="fill:#ffffff;stroke-width:2.07598"
     d="M 3.1870165,291.81219 C 1.8453733,289.3053 1.0379919,264.85807 1.0379919,226.74045 c 0,-56.51381 0.2824452,-61.31185 3.7964358,-64.49197 3.0121945,-2.726 8.1864943,-3.43573 25.0482823,-3.43573 11.688517,0 23.058817,0.96706 25.267335,2.14903 3.836414,2.05318 4.015491,4.99727 4.015491,66.01628 0,46.90655 -0.661563,64.52882 -2.491181,66.35844 -1.655254,1.65525 -10.686618,2.49118 -26.914747,2.49118 -22.0221871,0 -24.6348639,-0.39482 -26.5725915,-4.01549 z"
     id="path897"
     transform="matrix(4.9999998,0,0,4.9999998,-5,-5)" />
</svg>
